Tarea 4: Procesamiento de Flujos
…
# Se fija el no de bits para construir las cubetas
cubeta_bits <- 5

# Se calcula m
m <- 2^cubeta_bits

# Datos simulados 
df <- data_frame(num_distintos = 1:n) %>% # elems distintos
      mutate(id = as.character(sample.int(52345678, n, replace = FALSE))) %>% # muestreo de datos sin reemplazo
      mutate(hash = map(id, hash_1)) %>% # aplica fn hash 1
      mutate(cubeta = map_chr(hash, cubeta)) # Calcula cubeta
df

## # A tibble: 250,000 x 4
##    num_distintos id       hash       cubeta    
##            <int> <chr>    <list>     <chr>     
##  1             1 12638327 <raw [32]> 0000000000
##  2             2 32768794 <raw [32]> 0001010101
##  3             3 35769702 <raw [32]> 0100000000
##  4             4 49696296 <raw [32]> 0000000101
##  5             5 25500838 <raw [32]> 0001000001
##  6             6 21102554 <raw [32]> 0000010000
##  7             7 23517787 <raw [32]> 0000010100
##  8             8 46271047 <raw [32]> 0000010100
##  9             9 23945948 <raw [32]> 0000000100
## 10            10 25704509 <raw [32]> 0001010101
## # ... with 249,990 more rows

# Longitud de la cola sin los primeros bits 
df <- df %>% mutate(tail = map_int(hash, tail_length_lead))
df 

## # A tibble: 250,000 x 5
##    num_distintos id       hash       cubeta      tail
##            <int> <chr>    <list>     <chr>      <int>
##  1             1 12638327 <raw [32]> 0000000000     1
##  2             2 32768794 <raw [32]> 0001010101     2
##  3             3 35769702 <raw [32]> 0100000000     2
##  4             4 49696296 <raw [32]> 0000000101     2
##  5             5 25500838 <raw [32]> 0001000001     6
##  6             6 21102554 <raw [32]> 0000010000     1
##  7             7 23517787 <raw [32]> 0000010100     1
##  8             8 46271047 <raw [32]> 0000010100     1
##  9             9 23945948 <raw [32]> 0000000100     3
## 10            10 25704509 <raw [32]> 0001010101     2
## # ... with 249,990 more rows

Ahora vemos cmo calcular nuestra estimacin. cuando hay 50 mil distintos, calculamos mximo por cubeta

# Para 50mil elementos distintos
resumen<- df %>% # datos 
  filter(num_distintos <= n) %>% # filtra obs
    group_by(cubeta) %>% # agrupa por cubeta
    summarise(tail_max = max(tail)) # obtiene el max de la cola

# Resumen 
resumen

## # A tibble: 32 x 2
##    cubeta     tail_max
##    <chr>         <dbl>
##  1 0000000000       12
##  2 0000000001       14
##  3 0000000100       12
##  4 0000000101       13
##  5 0000010000       14
##  6 0000010001       13
##  7 0000010100       13
##  8 0000010101       13
##  9 0001000000       16
## 10 0001000001       12
## # ... with 22 more rows
…
