Tarea 6: Sistemas de Recomendación (parte 2)
…
ratings <- read_csv("../datos/ml-latest-small/ratings.csv")

## Parsed with column specification:
## cols(
##   userId = col_double(),
##   movieId = col_double(),
##   rating = col_double(),
##   timestamp = col_double()
## )

# Vemos la base de datos de los ratings
ratings

## # A tibble: 100,836 x 4
##    userId movieId rating timestamp
##     <dbl>   <dbl>  <dbl>     <dbl>
##  1      1       1      4 964982703
##  2      1       3      4 964981247
##  3      1       6      4 964982224
##  4      1      47      5 964983815
##  5      1      50      5 964982931
##  6      1      70      3 964982400
##  7      1     101      5 964980868
##  8      1     110      4 964982176
##  9      1     151      5 964984041
## 10      1     157      5 964984100
## # ... with 100,826 more rows
…
Vemos que el 50% de los usuarios tienen entre 20 y 70 calificaciones. Hay muy pocos usuarios con un número altísimo de evaluaciones. En promedio, un usuario tiene 165.304918 evaluaciones.

# Vemos la base de datos de las películas
movies

## # A tibble: 9,742 x 3
##    movieId title                        genres                             
##      <dbl> <chr>                        <chr>                              
##  1       1 Toy Story (1995)             Adventure|Animation|Children|Comed…
##  2       2 Jumanji (1995)               Adventure|Children|Fantasy         
##  3       3 Grumpier Old Men (1995)      Comedy|Romance                     
##  4       4 Waiting to Exhale (1995)     Comedy|Drama|Romance               
##  5       5 Father of the Bride Part II… Comedy                             
##  6       6 Heat (1995)                  Action|Crime|Thriller              
##  7       7 Sabrina (1995)               Comedy|Romance                     
##  8       8 Tom and Huck (1995)          Adventure|Children                 
##  9       9 Sudden Death (1995)          Action                             
## 10      10 GoldenEye (1995)             Action|Adventure|Thriller          
## # ... with 9,732 more rows
…
