Tarea 3: Locally Sensitive Hashing
…
# No de pares candidatos. 
nrow(candidatos)

## [1] 12181

Calculamos tambin la similitud de jaccard exacta para cada par y luego podemos filtrar.

candidatos <- lsh_compare(candidatos, corpus, jaccard_similarity)
candidatos

## # A tibble: 12,181 x 3
##    a      b                          score
##    <chr>  <chr>                      <dbl>
##  1 174639 journals/tods/SalemGS94   0.602 
##  2 174640 journals/tods/OliverS94   0.875 
##  3 174641 journals/tods/TendickM94  0.814 
##  4 174642 276370                    0.0690
##  5 174642 671508                    0.0519
##  6 174642 conf/sigmod/Chong98       0.0690
##  7 174642 conf/vldb/Hamilton99      0.0519
##  8 174642 journals/tods/CliffordC94 1     
##  9 176568 333613                    0.0745
## 10 176568 journals/sigmod/RamDD99   0.0745
## # ... with 12,171 more rows
…
# No de pares candidatos. 
nrow(candidatos)

## [1] 19665

Calculamos tambin la similitud de jaccard exacta para cada par y luego podemos filtrar.

candidatos <- lsh_compare(candidatos, corpus, jaccard_similarity)
candidatos

## # A tibble: 19,665 x 3
##    a      b                              score
##    <chr>  <chr>                          <dbl>
##  1 174639 conf/sigmod/ZhugeGHW95        0.0930
##  2 174640 233344                        0.165 
##  3 174640 248615                        0.146 
##  4 174640 276310                        0.218 
##  5 174640 conf/sigmod/DohertyHR96       0.158 
##  6 174640 conf/sigmod/Fegaras98         0.218 
##  7 174640 journals/sigmod/RamanathanH97 0.144 
##  8 174640 journals/tods/OliverS94       0.875 
##  9 174641 journals/tods/TendickM94      0.814 
## 10 174642 journals/tods/CliffordC94     1     
## # ... with 19,655 more rows
…
